[2019-5-21 14:02:16] [INF] Uruchamianie swerwera, środowisko undefined...
[2019-5-21 14:02:16] [API] Ustanowiono serwer HTTP
[2019-5-21 14:02:16] [SQL] SQL OK: Tue May 21 2019 14:02:16 GMT+0200 (GMT+02:00)
[2019-5-21 14:02:16] [API] Ustanowiono serwer WebSocket
[2019-5-21 14:41:51] [INF] Uruchamianie swerwera, środowisko undefined...
[2019-5-21 14:41:52] [API] Ustanowiono serwer HTTP
[2019-5-21 14:45:26] [INF] Uruchamianie swerwera, środowisko undefined...
[2019-5-21 14:45:26] [API] Ustanowiono serwer HTTP
[2019-5-21 14:46:52] [INF] Uruchamianie swerwera, środowisko undefined...
[2019-5-21 14:46:52] [API] Ustanowiono serwer HTTP
[2019-5-21 14:46:52] [SQL] SQL OK: Tue May 21 2019 14:46:52 GMT+0200 (GMT+02:00)
[2019-5-21 14:46:52] [API] Ustanowiono serwer WebSocket
[2019-5-21 14:47:12] [SOC] ::ffff:192.168.50.77:64714 joined network!
[2019-5-21 14:48:08] [ERR] HTTP Unknown method, IP = ::ffff:192.168.50.77, Q = {}
[2019-5-21 14:49:16] [ERR] HTTP Unknown method, IP = ::ffff:192.168.50.77, Q = {"method":"auth*username=admin","password":"d033e22ae348aeb5660fc2140aec35850c4da997"}
[2019-5-21 14:53:50] [ERR] HTTP Unknown method, IP = ::ffff:192.168.50.77, Q = {"toke":"5dad8fcb4061384d62024c16b55ff349a4fde7d51148aa9b6bb0590ff91c3c56","methos":"powerDevice"}
[2019-5-21 14:53:53] [ERR] HTTP Unknown method, IP = ::ffff:192.168.50.77, Q = {"toke":"5dad8fcb4061384d62024c16b55ff349a4fde7d51148aa9b6bb0590ff91c3c56","methos":"powerdevice"}
[2019-5-21 14:53:58] [ERR] HTTP Token is invalid or expired, IP = ::ffff:192.168.50.77, Q = {"toke":"5dad8fcb4061384d62024c16b55ff349a4fde7d51148aa9b6bb0590ff91c3c56","method":"powerDevice"}
[2019-5-21 14:57:10] [INF] Uruchamianie swerwera, środowisko undefined...
[2019-5-21 14:57:10] [API] Ustanowiono serwer HTTP
[2019-5-21 14:57:10] [SQL] SQL OK: Tue May 21 2019 14:57:10 GMT+0200 (GMT+02:00)
[2019-5-21 14:57:10] [API] Ustanowiono serwer WebSocket
[2019-5-21 14:57:13] [SOC] ::ffff:192.168.50.77:49311 joined network!
[2019-5-21 14:58:12] [ERR] HTTP 408, IP = ::ffff:192.168.50.77, Q = {"token":"5dad8fcb4061384d62024c16b55ff349a4fde7d51148aa9b6bb0590ff91c3c56","method":"powerDevice","id":"1","state":"0"}
[2019-5-21 15:00:13] [INF] Uruchamianie swerwera, środowisko undefined...
[2019-5-21 15:00:13] [API] Ustanowiono serwer HTTP
[2019-5-21 15:00:13] [SQL] SQL OK: Tue May 21 2019 15:00:13 GMT+0200 (GMT+02:00)
[2019-5-21 15:00:13] [API] Ustanowiono serwer WebSocket
[2019-5-21 15:08:52] [INF] Uruchamianie swerwera, środowisko undefined...
[2019-5-21 15:08:52] [API] Ustanowiono serwer HTTP
[2019-5-21 15:08:52] [SQL] SQL OK: Tue May 21 2019 15:08:52 GMT+0200 (GMT+02:00)
[2019-5-21 15:08:52] [API] Ustanowiono serwer WebSocket
[2019-5-21 15:09:00] [SOC] ::ffff:192.168.50.77:50311 joined network!
[2019-5-21 15:09:04] [SOC] ::ffff:192.168.50.77:50311 :: CURRENTSTATUS
[2019-5-21 15:09:04] [ERR] TypeError: Cannot read property 'length' of undefined
[2019-5-21 15:09:38] [SOC] ::ffff:192.168.50.77:50311 :: PONG
[2019-5-21 15:09:38] [ERR] TypeError: Cannot read property 'length' of undefined
[2019-5-21 15:16:02] [API] Nowy klient, IP = ::ffff:192.168.50.77, TOKEN = 703ac27a2420ee6d17e1683d9993ab3986c75717585dcfcdae781fc5f140bfe2
[2019-5-21 15:16:03] [WEB] 703ac27a2420ee6d17e1683d9993ab3986c75717585dcfcdae781fc5f140bfe2 = admin
[2019-5-21 15:16:18] [SOC] ::ffff:192.168.50.77:50311 :: CURRENTSTATUS
[2019-5-21 15:16:18] [ERR] TypeError: Cannot read property 'length' of undefined
[2019-5-21 15:16:32] [WEB] 703ac27a2420ee6d17e1683d9993ab3986c75717585dcfcdae781fc5f140bfe2 = admin rozłączył się
[2019-5-21 15:16:32] [API] Nowy klient, IP = ::ffff:192.168.50.77, TOKEN = 703ac27a2420ee6d17e1683d9993ab3986c75717585dcfcdae781fc5f140bfe2
[2019-5-21 15:16:32] [WEB] 703ac27a2420ee6d17e1683d9993ab3986c75717585dcfcdae781fc5f140bfe2 = admin
[2019-5-21 15:18:20] [INF] Uruchamianie swerwera, środowisko undefined...
[2019-5-21 15:18:21] [API] Ustanowiono serwer HTTP
[2019-5-21 15:18:22] [SQL] SQL OK: Tue May 21 2019 15:18:22 GMT+0200 (GMT+02:00)
[2019-5-21 15:18:22] [API] Ustanowiono serwer WebSocket
[2019-5-21 15:18:24] [API] Nowy klient, IP = ::ffff:192.168.50.77, TOKEN = 703ac27a2420ee6d17e1683d9993ab3986c75717585dcfcdae781fc5f140bfe2
[2019-5-21 15:18:24] [WEB] 703ac27a2420ee6d17e1683d9993ab3986c75717585dcfcdae781fc5f140bfe2 = admin
[2019-5-21 15:18:33] [SOC] ::ffff:192.168.50.77:51149 joined network!
[2019-5-21 15:18:39] [WEB] 703ac27a2420ee6d17e1683d9993ab3986c75717585dcfcdae781fc5f140bfe2 = admin rozłączył się
[2019-5-21 15:18:39] [API] Nowy klient, IP = ::ffff:192.168.50.77, TOKEN = 703ac27a2420ee6d17e1683d9993ab3986c75717585dcfcdae781fc5f140bfe2
[2019-5-21 15:18:39] [WEB] 703ac27a2420ee6d17e1683d9993ab3986c75717585dcfcdae781fc5f140bfe2 = admin
[2019-5-21 15:18:57] [SOC] AABBCCDDEEFF (::ffff:192.168.50.77:51149) => 0 ::: CURRENTSTATUS
[2019-5-21 15:18:58] [CMD] {"command":"getDevices"}
[2019-5-21 15:18:58] [CMD] {"command":"getGroups"}
[2019-5-21 15:19:29] [SOC] AABBCCDDEEFF (::ffff:192.168.50.77:51149) => 0 ::: CURRENTSTATUS
[2019-5-21 15:19:30] [CMD] {"command":"getDevices"}
[2019-5-21 15:19:30] [CMD] {"command":"getGroups"}
[2019-5-21 15:19:35] [SOC] AABBCCDDEEFF (::ffff:192.168.50.77:51149) => 0 ::: CURRENTSTATUS
[2019-5-21 15:19:35] [CMD] {"command":"getDevices"}
[2019-5-21 15:19:35] [CMD] {"command":"getGroups"}
[2019-5-21 15:19:46] [WEB] 703ac27a2420ee6d17e1683d9993ab3986c75717585dcfcdae781fc5f140bfe2 = admin rozłączył się
[2019-5-21 15:19:49] [API] Nowy klient, IP = ::ffff:192.168.50.77, TOKEN = 703ac27a2420ee6d17e1683d9993ab3986c75717585dcfcdae781fc5f140bfe2
[2019-5-21 15:19:49] [WEB] 703ac27a2420ee6d17e1683d9993ab3986c75717585dcfcdae781fc5f140bfe2 = admin
[2019-5-21 15:19:52] [SOC] AABBCCDDEEFF (::ffff:192.168.50.77:51149) => 0 ::: CURRENTSTATUS
[2019-5-21 15:19:53] [CMD] {"command":"getDevices"}
[2019-5-21 15:19:53] [CMD] {"command":"getGroups"}
[2019-5-21 15:19:56] [SOC] AABBCCDDEEFF (::ffff:192.168.50.77:51149) => 0 ::: CURRENTSTATUS
[2019-5-21 15:19:56] [CMD] {"command":"getDevices"}
[2019-5-21 15:19:56] [CMD] {"command":"getGroups"}
[2019-5-21 15:21:39] [SOC] AABBCCDDEEFF (::ffff:192.168.50.77:51149) => 0 ::: CURRENTSTATUS
[2019-5-21 15:21:39] [CMD] {"command":"getDevices"}
[2019-5-21 15:21:39] [CMD] {"command":"getGroups"}
[2019-5-21 15:21:44] [SOC] AABBCCDDEEFF (::ffff:192.168.50.77:51149) => 0 ::: CURRENTSTATUS
[2019-5-21 15:21:44] [CMD] {"command":"getDevices"}
[2019-5-21 15:21:44] [CMD] {"command":"getGroups"}
[2019-5-21 15:31:53] [CMD] {"command":"powerDevice","value":{"id":1,"state":0}}
[2019-5-21 15:31:54] [CMD] {"command":"getDevices"}
[2019-5-21 15:31:54] [CMD] {"command":"getGroups"}
[2019-5-21 15:32:03] [WEB] 703ac27a2420ee6d17e1683d9993ab3986c75717585dcfcdae781fc5f140bfe2 = admin rozłączył się
[2019-5-21 15:32:03] [API] Nowy klient, IP = ::ffff:192.168.50.77, TOKEN = 703ac27a2420ee6d17e1683d9993ab3986c75717585dcfcdae781fc5f140bfe2
[2019-5-21 15:32:03] [WEB] 703ac27a2420ee6d17e1683d9993ab3986c75717585dcfcdae781fc5f140bfe2 = admin
[2019-5-21 15:32:07] [CMD] {"command":"powerDevice","value":{"id":2,"state":1}}
[2019-5-21 15:32:07] [CMD] {"command":"getDevices"}
[2019-5-21 15:32:07] [CMD] {"command":"getGroups"}
[2019-5-21 15:32:09] [CMD] {"command":"powerDevice","value":{"id":1,"state":0}}
[2019-5-21 15:32:09] [CMD] {"command":"getDevices"}
[2019-5-21 15:32:09] [CMD] {"command":"getGroups"}
[2019-5-21 15:48:55] [INF] Uruchamianie swerwera, środowisko undefined...
[2019-5-21 15:48:55] [API] Ustanowiono serwer HTTP
[2019-5-21 15:48:55] [SQL] SQL OK: Tue May 21 2019 15:48:55 GMT+0200 (GMT+02:00)
[2019-5-21 15:48:55] [API] Ustanowiono serwer WebSocket
